[{
    "present weather": "Present weather at hewanorra airport is fair. Present weather at gfl charles airport is cloudy. ",
    "wind speed": "25",
    "seas": " locally rough with waves and northeasterly to easterly swells 8 to 10 feet or 2.4 to 3.0 metres.",
    "tides for castries harbour": " high at 8:51 pm\u2026low at 2:20 am.",
    "current wind": "Wind at hewanorra airport is blowing from the northeast at 20 mph or 31 km/h.",
    "tides for vieux fort bay": "   high at 9:58 pm\u2026low at 3:47 am.",
    "weather forecast": "Weather: partly cloudy to occasionally cloudy, and breezy, with some scattered late night to early morning showers.",
    "sunset": "6:06 PM",
    "waves": "10",
    "date": " 06th february, 2018",
    "sunrise": "6:30 AM",
    "temperature": "26"
},
{
    "present weather": "Present weather at hewanorra airport is partly cloudy. Present weather at gfl charles airport is partly cloudy. ",
    "wind speed": "25",
    "seas": " locally rough with waves and northeasterly to easterly swells 8 to 10 feet or 2.4 to 3.0 metres.",
    "tides for castries harbour": " low at 2:40 pm\u2026high at 8:51 pm.",
    "current wind": "Wind at hewanorra airport is blowing from the east-northeast at 23 mph or 37 km/h.",
    "tides for vieux fort bay": "   low at 4:07 pm\u2026high at 9:58 pm.",
    "weather forecast": "Weather: partly cloudy and breezy, becoming cloudy at times with some brief scattered showers.",
    "sunset": "6:05 PM",
    "waves": "10",
    "date": " 06th february, 2018",
    "sunrise": "6:30 AM",
    "temperature": "29"
},
{
    "present weather": "Present weather at hewanorra airport is cloudy with showers nearby.\npresent weather at gfl charles airport is partly cloudy.\npresent temperature at hewanorra airport is 26 c or 79 f.\nlast night\u2019s minimum temperature at hewanorra airport was 26 c or 79 f.\nwind at hewanorra airport is blowing from the east northeast at 21 mph or 33 km/h. ",
    "temperature": "26",
    "current wind": "Brisk easterly to east northeasterly winds and rough seas are expected around",
    "sunset": "6:05 PM",
    "waves": "Locally rough with waves and northeasterly to easterly swells 8 to 10 feet\nor 2.4 to 3.0 metres.\nsmall craft operators and sea bathers are advised to exercise caution due to brisk winds and rough seas.",
    "date": " 06th february, 2018 forecaster: e. francis",
    "marine forecast for seas in a 25 mile or 40 km radius from saint lucia\ntides for castries harbour": " high at 8:00 am\u2026.low at 2:40 pm.\ntides for vieux fort bay: high at 9:07 am\u2026.low at 4:07 pm.\nseas: locally rough with waves and northeasterly to easterly swells 8 to 10 feet\nor 2.4 to 3.0 metres.\nsmall craft operators and sea bathers are advised to exercise caution due to brisk winds and rough seas.",
    "sunrise": "6:30 AM"
},
{
    "present weather": "Present weather at hewanorra airport is fair. Present weather at gfl charles airport is fair. ",
    "wind speed": "23",
    "seas": " locally rough with waves and northeasterly to easterly swells 8 to 10 feet or 2.4 to 3.0 metres.",
    "tides for castries harbour": " high at 7:17 am\u2026.low at 1:32 pm.",
    "current wind": "Wind at hewanorra airport is blowing from the east at 17 mph or 28 km/h.",
    "tides for vieux fort bay": " high at 8:24 am\u2026.low at 2:59 pm.",
    "weather forecast": "Weather: partly cloudy and breezy with a few scattered showers.",
    "sunset": "6:05 PM",
    "waves": "10",
    "date": " 05th february, 2018",
    "sunrise": "6:30 AM",
    "temperature": "27"
},
{
    "present weather": "Present weather at hewanorra airport is fair. Present weather at gfl charles airport is partly cloudy. ",
    "temperature": "29",
    "seas": " locally rough with waves and northeast to easterly swells 8 to",
    "tides for castries harbour": " low at 1:32 pm\u2026high at 7:46 pm.",
    "current wind": "Wind at hewanorra airport is blowing from the east at 25 mph or 41 km/h.",
    "tides for vieux fort bay": "   low at 2:59 pm\u2026high at 8:53 pm.",
    "weather forecast": "Weather: partly cloudy and breezy with a few scattered light to moderate",
    "sunset": "6:05 PM",
    "date": " 05th february, 2018",
    "sunrise": "6:30 AM"
},
{
    "present weather": "Present weather at hewanorra airport is party cloudy with showers nearby. Present weather at gfl charles airport is partly cloudy. ",
    "wind speed": "23",
    "seas": " locally rough with waves and swells 6 to 9 feet or 1.8 to 2.7 metres.",
    "tides for castries harbour": " high at 7:17 am\u2026low at 1:32 pm.",
    "current wind": "Wind at hewanorra airport is blowing from the east at 25 mph or 41 km/h.",
    "tides for vieux fort bay": "   high at 8:24 am\u2026low at 2:59 pm.",
    "weather forecast": "Weather: partly cloudy to cloudy at times with scattered light to moderate showers.",
    "sunset": "6:05 PM",
    "date": " 05th february, 2018",
    "sunrise": "6:30 AM",
    "temperature": "26"
},
{
    "present weather": "Present weather at hewanorra airport is party cloudy with showers nearby. Present weather at gfl charles airport is cloudy. ",
    "wind speed": "21",
    "seas": " moderate to locally rough with waves and swells 5 to 8 feet or 1.5",
    "tides for castries harbour": " high at 6:52 pm\u2026low at 12:52 am",
    "current wind": "Wind at hewanorra airport is blowing from the east at 20 mph or 31 km/h.",
    "tides for vieux fort bay": "   high at 7:59 pm\u2026low at 02:19 am",
    "weather forecast": "Weather: partly cloudy to cloudy skies with scattered showers.",
    "sunset": "6:05 PM",
    "waves": "8",
    "date": " 04th february, 2018",
    "sunrise": "6:30 AM",
    "temperature": "27"
},
{
    "present weather": "Present weather at hewanorra airport is fair. Present weather at gfl charles airport is fair. ",
    "wind speed": "18",
    "seas": " moderate to locally rough with waves and swells 5 to 8 feet or 1.5",
    "tides for castries harbour": " low at 12:29 pm\u2026.high at 6:52 pm.",
    "current wind": "Wind at hewanorra airport is blowing from the east at 21 mph or 33 km/h.",
    "tides for vieux fort bay": " low at 1:56 pm\u2026.high at 07:59 pm.",
    "weather forecast": "Weather: fair to partly cloudy with a few showers at first. a marginal",
    "sunset": "6:05 PM",
    "waves": "8",
    "date": " 04th february, 2018",
    "sunrise": "6:30 AM",
    "temperature": "29"
},
{
    "present weather": "Present weather at hewanorra airport is fair.\npresent weather at gfl charles airport is fair.\npresent temperature at hewanorra airport is 26 c or 79 f.\nlast night\u2019s minimum temperature at hewanorra airport was 25 c or 77 f.\nwind at hewanorra airport is blowing from the east at 21 mph or 33 km/h. ",
    "wind speed": "2418",
    "current wind": "Moderate easterly winds and rough seas are expected to continue around the",
    "sunset": "6:05 PM",
    "waves": "Moderate to locally rough with waves and swells 5 to 8 feet or 1.5\nto 2.4 metres.\nsmall craft operators and sea bathers are advised to exercise caution\ndue to rough seas.",
    "date": " 04th february, 2018 forecaster: maclean jn baptiste",
    "marine forecast for seas in a 25 mile or 40 km radius from saint lucia\ntides for castries harbour": " high at 6:37 am\u2026.low at 12:29 pm.\ntides for vieux fort bay: high at 7:44 am\u2026.low at 01:56 pm.\nseas: moderate to locally rough with waves and swells 5 to 8 feet or 1.5\nto 2.4 metres.\nsmall craft operators and sea bathers are advised to exercise caution\ndue to rough seas.",
    "sunrise": "6:30 AM",
    "temperature": "26"
}
]